{
  "$schema": "http://json.schemastore.org/launchsettings.json",
  "profiles": {
    "kestrel": {
      "commandName": "Project",
      "launchBrowser": true,
      "applicationUrl": "http://localhost:49764/",
      "environmentVariables": {
        "ASPNETCORE_ENVIRONMENT": "Development"
      }
    }
  }
}